newmtl BT3554FBXASC046cgrFBXASC124:FBXASC12477401B7E6EE2EA3250B03D45981FF6552DEDAF00FBXASC124:FBXASC124AC3478D69A3C81FA62E60F5C3696165A4E5E6AC4SG
illum 4
Kd 0.75 0.75 0.75
Ka 0.75 0.75 0.75
Tf 1.00 1.00 1.00
Ni 1.00
Ks 0.00 0.00 0.00
Ns 0.00
newmtl BT3554FBXASC046cgrFBXASC124:FBXASC12477401B7E6EE2EA3250B03D45981FF6552DEDAF00FBXASC124:FBXASC124BD307A3EC329E10A2CFF8FB87480823DA114F8F4SG
illum 4
Kd 0.50 1.00 1.00
Ka 0.50 1.00 1.00
Tf 1.00 1.00 1.00
Ni 1.00
Ks 0.00 0.00 0.00
Ns 0.00
newmtl BT3554FBXASC046cgrFBXASC124:FBXASC12477401B7E6EE2EA3250B03D45981FF6552DEDAF00FBXASC124:FBXASC124C097638F92DE80BA8D6C696B26E6E601A5F61EB7SG
illum 4
Kd 0.00 0.00 0.00
Ka 0.00 0.00 0.00
Tf 1.00 1.00 1.00
Ni 1.00
Ks 0.00 0.00 0.00
Ns 0.00
newmtl BT3554FBXASC046cgrFBXASC124:FBXASC12477401B7E6EE2EA3250B03D45981FF6552DEDAF00FBXASC124:FBXASC124C097638F92DE80BA8D6C696B26E6E601A5F61EB7SG1
illum 4
Kd 0.79 0.82 0.93
Ka 0.79 0.82 0.93
Tf 1.00 1.00 1.00
Ni 1.00
Ks 0.00 0.00 0.00
Ns 0.00
newmtl BT3554FBXASC046cgrFBXASC124:FBXASC12477401B7E6EE2EA3250B03D45981FF6552DEDAF00FBXASC124:FBXASC124C1DFD96EEA8CC2B62785275BCA38AC261256E278SG
illum 4
Kd 0.75 0.75 0.75
Ka 0.75 0.75 0.75
Tf 1.00 1.00 1.00
Ni 1.00
Ks 0.00 0.00 0.00
Ns 0.00
newmtl BT3554FBXASC046cgrFBXASC124:FBXASC12477401B7E6EE2EA3250B03D45981FF6552DEDAF00FBXASC124:FBXASC124DA4B9237BACCCDF19C0760CAB7AEC4A8359010B0SG
illum 4
Kd 0.50 0.50 0.50
Ka 0.50 0.50 0.50
Tf 1.00 1.00 1.00
Ni 1.00
Ks 0.00 0.00 0.00
Ns 0.00
newmtl BT3554FBXASC046cgrFBXASC124:FBXASC12477401B7E6EE2EA3250B03D45981FF6552DEDAF00FBXASC124:FBXASC124E1822DB470E60D090AFFD0956D743CB0E7CDF113SG
illum 4
Kd 0.85 0.85 0.81
Ka 0.85 0.85 0.81
Tf 1.00 1.00 1.00
Ni 1.00
Ks 0.00 0.00 0.00
Ns 0.00
newmtl BT3554FBXASC046cgrFBXASC124:FBXASC12477401B7E6EE2EA3250B03D45981FF6552DEDAF00FBXASC124:FBXASC124FA35E192121EABF3DABF9F5EA6ABDBCBC107AC3BSG
illum 4
Kd 0.00 0.00 0.63
Ka 0.00 0.00 0.63
Tf 1.00 1.00 1.00
Ni 1.00
Ks 0.00 0.00 0.00
Ns 0.00
newmtl BT3554FBXASC046cgrFBXASC124:FBXASC12477401B7E6EE2EA3250B03D45981FF6552DEDAF00FBXASC124:FBXASC124FC074D501302EB2B93E2554793FCAF50B3BF7291SG
illum 4
Kd 0.15 0.64 0.00
Ka 0.15 0.64 0.00
Tf 1.00 1.00 1.00
Ni 1.00
Ks 0.00 0.00 0.00
Ns 0.00
newmtl BT3554FBXASC046cgrFBXASC124:FBXASC12477401B7E6EE2EA3250B03D45981FF6552DEDAF00FBXASC124:FBXASC1241B6453892473A467D07372D45EB05ABC2031647ASG
illum 4
Kd 0.51 0.51 0.58
Ka 0.51 0.51 0.58
Tf 1.00 1.00 1.00
Ni 1.00
Ks 0.00 0.00 0.00
Ns 0.00
newmtl BT3554FBXASC046cgrFBXASC124:FBXASC12477401B7E6EE2EA3250B03D45981FF6552DEDAF00FBXASC124:FBXASC1242E01E17467891F7C933DBAA00E1459D23DB3FE4FSG
illum 4
Kd 0.88 0.76 0.00
Ka 0.88 0.76 0.00
Tf 1.00 1.00 1.00
Ni 1.00
Ks 0.00 0.00 0.00
Ns 0.00
newmtl BT3554FBXASC046cgrFBXASC124:FBXASC12477401B7E6EE2EA3250B03D45981FF6552DEDAF00FBXASC124:FBXASC12454CEB91256E8190E474AA752A6E0650A2DF5BA37SG
illum 4
Kd 0.44 0.44 0.44
Ka 0.44 0.44 0.44
Tf 1.00 1.00 1.00
Ni 1.00
Ks 0.00 0.00 0.00
Ns 0.00
newmtl BT3554FBXASC046cgrFBXASC124:FBXASC12477401B7E6EE2EA3250B03D45981FF6552DEDAF00FBXASC124:FBXASC12464E095FE763FC62418378753F9402623BEA9E227SG
illum 4
Kd 0.78 0.76 0.74
Ka 0.78 0.76 0.74
Tf 1.00 1.00 1.00
Ni 1.00
Ks 0.00 0.00 0.00
Ns 0.00
newmtl BT3554FBXASC046cgrFBXASC124:FBXASC12477401B7E6EE2EA3250B03D45981FF6552DEDAF00FBXASC124:FBXASC12464E095FE763FC62418378753F9402623BEA9E227SG1
illum 4
Kd 0.53 0.55 0.55
Ka 0.53 0.55 0.55
Tf 1.00 1.00 1.00
Ni 1.00
Ks 0.00 0.00 0.00
Ns 0.00
newmtl BT3554FBXASC046cgrFBXASC124:FBXASC12477401B7E6EE2EA3250B03D45981FF6552DEDAF00FBXASC124:FBXASC12477DE68DAECD823BABBB58EDB1C8E14D7106E83BBSG
illum 4
Kd 1.00 1.00 1.00
Ka 1.00 1.00 1.00
Tf 1.00 1.00 1.00
Ni 1.00
Ks 0.00 0.00 0.00
Ns 0.00
newmtl BT3554FBXASC046cgrFBXASC124:FBXASC12477401B7E6EE2EA3250B03D45981FF6552DEDAF00FBXASC124:FBXASC12477DE68DAECD823BABBB58EDB1C8E14D7106E83BBSG1
illum 4
Kd 0.06 0.42 1.00
Ka 0.06 0.42 1.00
Tf 1.00 1.00 1.00
Ni 1.00
Ks 0.00 0.00 0.00
Ns 0.00
newmtl BT3554FBXASC046cgrFBXASC124:FBXASC12477401B7E6EE2EA3250B03D45981FF6552DEDAF00FBXASC124:FBXASC12477DE68DAECD823BABBB58EDB1C8E14D7106E83BBSG2
illum 4
Kd 0.15 0.41 1.00
Ka 0.15 0.41 1.00
Tf 1.00 1.00 1.00
Ni 1.00
Ks 0.00 0.00 0.00
Ns 0.00
newmtl BT3554FBXASC046cgrFBXASC124:FBXASC12477401B7E6EE2EA3250B03D45981FF6552DEDAF00FBXASC124:FBXASC12477DE68DAECD823BABBB58EDB1C8E14D7106E83BBSG3
illum 4
Kd 0.75 1.00 0.75
Ka 0.75 1.00 0.75
Tf 1.00 1.00 1.00
Ni 1.00
Ks 0.00 0.00 0.00
Ns 0.00
newmtl BT3554FBXASC046cgrFBXASC124:FBXASC12477401B7E6EE2EA3250B03D45981FF6552DEDAF00FBXASC124:FBXASC12477DE68DAECD823BABBB58EDB1C8E14D7106E83BBSG4
illum 4
Kd 0.00 0.00 1.00
Ka 0.00 0.00 1.00
Tf 1.00 1.00 1.00
Ni 1.00
Ks 0.00 0.00 0.00
Ns 0.00
newmtl BT3554FBXASC046cgrFBXASC124:FBXASC12477401B7E6EE2EA3250B03D45981FF6552DEDAF00FBXASC124:FBXASC12477DE68DAECD823BABBB58EDB1C8E14D7106E83BBSG5
illum 4
Kd 0.98 0.56 0.00
Ka 0.98 0.56 0.00
Tf 1.00 1.00 1.00
Ni 1.00
Ks 0.00 0.00 0.00
Ns 0.00
newmtl BT3554FBXASC046cgrFBXASC124:FBXASC12477401B7E6EE2EA3250B03D45981FF6552DEDAF00FBXASC124:FBXASC12477DE68DAECD823BABBB58EDB1C8E14D7106E83BBSG6
illum 4
Kd 1.00 0.50 1.00
Ka 1.00 0.50 1.00
Tf 1.00 1.00 1.00
Ni 1.00
Ks 0.00 0.00 0.00
Ns 0.00
newmtl BT3554FBXASC046cgrFBXASC124:FBXASC12477401B7E6EE2EA3250B03D45981FF6552DEDAF00FBXASC124:FBXASC12477DE68DAECD823BABBB58EDB1C8E14D7106E83BBSG7
illum 4
Kd 0.75 0.00 0.75
Ka 0.75 0.00 0.75
Tf 1.00 1.00 1.00
Ni 1.00
Ks 0.00 0.00 0.00
Ns 0.00
newmtl BT3554FBXASC046cgrFBXASC124:FBXASC12477401B7E6EE2EA3250B03D45981FF6552DEDAF00FBXASC124:FBXASC12477DE68DAECD823BABBB58EDB1C8E14D7106E83BBSG8
illum 4
Kd 0.91 0.44 0.03
Ka 0.91 0.44 0.03
Tf 1.00 1.00 1.00
Ni 1.00
Ks 0.00 0.00 0.00
Ns 0.00
newmtl BT3554FBXASC046cgrFBXASC124:FBXASC12477401B7E6EE2EA3250B03D45981FF6552DEDAF00FBXASC124:FBXASC12477DE68DAECD823BABBB58EDB1C8E14D7106E83BBSG9
illum 4
Kd 0.18 0.38 1.00
Ka 0.18 0.38 1.00
Tf 1.00 1.00 1.00
Ni 1.00
Ks 0.00 0.00 0.00
Ns 0.00
newmtl BT3554FBXASC046cgrFBXASC124:FBXASC12477401B7E6EE2EA3250B03D45981FF6552DEDAF00FBXASC124:FBXASC12477DE68DAECD823BABBB58EDB1C8E14D7106E83BBSG10
illum 4
Kd 0.22 0.47 1.00
Ka 0.22 0.47 1.00
Tf 1.00 1.00 1.00
Ni 1.00
Ks 0.00 0.00 0.00
Ns 0.00
newmtl BT3554FBXASC046cgrFBXASC124:FBXASC12477401B7E6EE2EA3250B03D45981FF6552DEDAF00FBXASC124:FBXASC12498FBC42FAEDC02492397CB5962EA3A3FFC0A9243SG
illum 4
Kd 0.00 0.47 0.85
Ka 0.00 0.47 0.85
Tf 1.00 1.00 1.00
Ni 1.00
Ks 0.00 0.00 0.00
Ns 0.00
newmtl BT3554FBXASC046cgrFBXASC124:FBXASC12477401B7E6EE2EA3250B03D45981FF6552DEDAF00FBXASC124:FBXASC12498FBC42FAEDC02492397CB5962EA3A3FFC0A9243SG1
illum 4
Kd 1.00 0.95 0.83
Ka 1.00 0.95 0.83
Tf 1.00 1.00 1.00
Ni 1.00
Ks 0.00 0.00 0.00
Ns 0.00
newmtl BT3554FBXASC046cgrFBXASC124:FBXASC12477401B7E6EE2EA3250B03D45981FF6552DEDAF00FBXASC124:FBXASC124356A192B7913B04C54574D18C28D46E6395428ABSG
illum 4
Kd 0.31 0.44 1.00
Ka 0.31 0.44 1.00
Tf 1.00 1.00 1.00
Ni 1.00
Ks 0.00 0.00 0.00
Ns 0.00
newmtl BT3554FBXASC046cgrFBXASC124:FBXASC12477401B7E6EE2EA3250B03D45981FF6552DEDAF00FBXASC124:FBXASC1240716D9708D321FFB6A00818614779E779925365CSG
illum 4
Kd 1.00 0.89 0.41
Ka 1.00 0.89 0.41
Tf 1.00 1.00 1.00
Ni 1.00
Ks 0.00 0.00 0.00
Ns 0.00
newmtl BT3554FBXASC046cgrFBXASC124:FBXASC12477401B7E6EE2EA3250B03D45981FF6552DEDAF00FBXASC124:FBXASC124632667547E7CD3E0466547863E1207A8C0C0C549SG
illum 4
Kd 0.04 0.78 0.00
Ka 0.04 0.78 0.00
Tf 1.00 1.00 1.00
Ni 1.00
Ks 0.00 0.00 0.00
Ns 0.00
